{
  "isOk": true,
  "messages": [],
  "item": [
    {
      "description": "",
      "isActive": true,
      "jobActionGroups": [
        {
          "description": "",
          "isActive": true,
          "jobActions": [
            {
              "description": "",
              "isActive": true,
              "uid": "e1d573b4-9add-4b01-b307-c9f5e00e1486",
              "name": "Default",
              "createdBy": "37cd5fe6-fc41-4cdd-9b94-3df0af9b1cb0",
              "createdByName": "ModyydoM",
              "createdAt": "2019-06-25T15:57:57.420649",
              "updatedBy": "f5151a6e-c45e-4a12-8931-d1f5a598fff0",
              "updatedByName": "",
              "updatedAt": null
            }
          ],
          "jobActionGroupTriggers": [],
          "uid": "e1d573b4-9add-4b01-b307-c9f5e00e1486",
          "name": "Default",
          "createdBy": "37cd5fe6-fc41-4cdd-9b94-3df0af9b1cb0",
          "createdByName": "ModyydoM",
          "createdAt": "2019-06-25T15:57:57.420649",
          "updatedBy": "f5151a6e-c45e-4a12-8931-d1f5a598fff0",
          "updatedByName": "",
          "updatedAt": null
        }
      ],
      "jobTriggers": [],
      "uid": "0eec3c31-909b-4e33-a281-2e41c346de6a",
      "name": "Default",
      "createdBy": "37cd5fe6-fc41-4cdd-9b94-3df0af9b1cb0",
      "createdByName": "ModyydoM",
      "createdAt": "2019-06-25T15:57:57.418247",
      "updatedBy": "ee323ac7-0f3a-4aa7-83f5-02ba5ed6176f",
      "updatedByName": "",
      "updatedAt": null
    }
  ]
}