{
  "isOk": false,
  "messages": [],
  "item": {
    "uid": "7389849e-0f43-4f11-96fd-b2bee9c19662",
    "name": "Default",
    "iconClass": "",
    "groups": [
      {
        "uid": "b5e77e1f-7407-49b6-b7e4-1be5828594ea",
        "name": "administration",
        "iconClass": "",
        "groups": [
        ],
        "items": [
          {
            "uid": "bb6723d6-74e7-42b6-b6a9-c0b8cab10c87",
            "name": "organization_detail",
            "url": "/Organization/Detail",
            "iconClass": "",
            "isOpenInNewTab": false,
            "isSeparator": false
          },
          {
            "uid": "3ab8ac6d-32a6-44f1-a61d-63c9dba895de",
            "name": "journal",
            "url": "/Organization/JournalList",
            "iconClass": "",
            "isOpenInNewTab": false,
            "isSeparator": false
          },
          {
            "uid": "84266305-885e-4b9e-a758-de430604ff00",
            "name": "users",
            "url": "/User/List",
            "iconClass": "",
            "isOpenInNewTab": false,
            "isSeparator": false
          },
          {
            "uid": "a6306a30-9e53-41b1-9185-d4a584b58a31",
            "name": "groups",
            "url": "/Group/List",
            "iconClass": "",
            "isOpenInNewTab": false,
            "isSeparator": false
          },
          {
            "uid": "cb1f3458-c7f6-4c4f-b458-3b5cfe2336ba",
            "name": "integrations",
            "url": "/Integration/List",
            "iconClass": "",
            "isOpenInNewTab": false,
            "isSeparator": false
          },
          {
            "uid": "477009ce-61a9-4453-b865-25f1f0df3015",
            "name": "---",
            "url": "",
            "iconClass": "",
            "isOpenInNewTab": false,
            "isSeparator": true
          },
          {
            "uid": "9b930f56-fbe7-4f37-994b-eff7a9de3004",
            "name": "password_strength_settings",
            "url": "/Organization/IpRestrictions",
            "iconClass": "",
            "isOpenInNewTab": false,
            "isSeparator": false
          },
          {
            "uid": "002741d6-be31-48cf-94be-5b71af57163f",
            "name": "ip_restrictions",
            "url": "/Organization/PasswordStrengthSettings",
            "iconClass": "",
            "isOpenInNewTab": false,
            "isSeparator": false
          },
          {
            "uid": "33ba455b-641b-4f9d-8ed6-e7d385330ea5",
            "name": "custom_objects",
            "url": "/CustomObject/List",
            "iconClass": "",
            "isOpenInNewTab": false,
            "isSeparator": false
          },
          {
            "uid": "ca015a0f-80aa-4092-a482-cf10ecd2ecd7",
            "name": "validation_rules",
            "url": "/ValidationRule/List",
            "iconClass": "",
            "isOpenInNewTab": false,
            "isSeparator": false
          },
          {
            "uid": "d009f827-fd50-4c67-bf62-da1401092186",
            "name": "data_filters",
            "url": "/DataFilter/List",
            "iconClass": "",
            "isOpenInNewTab": false,
            "isSeparator": false
          },
          {
            "uid": "0071ea9c-d522-4aab-bd0d-e7c79b355bfa",
            "name": "views",
            "url": "/View/List",
            "iconClass": "",
            "isOpenInNewTab": false,
            "isSeparator": false
          },
          {
            "uid": "fead77f1-36e0-4173-8799-25545e94954e",
            "name": "---",
            "url": "",
            "iconClass": "",
            "isOpenInNewTab": false,
            "isSeparator": true
          },
          {
            "uid": "3cef0f4d-de24-4829-84a2-b82006d64c4a",
            "name": "menus",
            "url": "/Menu/List",
            "iconClass": "",
            "isOpenInNewTab": false,
            "isSeparator": false
          },
          {
            "uid": "9ee04e21-8afd-4d74-81dc-91ace90592d5",
            "name": "parameters",
            "url": "/Parameter/List",
            "iconClass": "",
            "isOpenInNewTab": false,
            "isSeparator": false
          },
          {
            "uid": "0d139f09-a7fe-4720-9135-a4790780cceb",
            "name": "templates",
            "url": "/Template/List",
            "iconClass": "",
            "isOpenInNewTab": false,
            "isSeparator": false
          },
          {
            "uid": "e5fef54d-d399-443c-b21f-77ce101d429e",
            "name": "---",
            "url": "",
            "iconClass": "",
            "isOpenInNewTab": false,
            "isSeparator": true
          },
          {
            "uid": "09623082-9257-40bf-9512-bf77a4a9c614",
            "name": "folders",
            "url": "/Folder/List",
            "iconClass": "",
            "isOpenInNewTab": false,
            "isSeparator": false
          },
          {
            "uid": "ba495d1d-75d0-42af-b8f4-b6610d5a5dd2",
            "name": "contents",
            "url": "/Content/List",
            "iconClass": "",
            "isOpenInNewTab": false,
            "isSeparator": false
          },
          {
            "uid": "48afae67-fb42-4e66-bb10-4ef1c43d2d8c",
            "name": "jobs",
            "url": "/Job/List",
            "iconClass": "",
            "isOpenInNewTab": false,
            "isSeparator": false
          },
          {
            "uid": "2895adae-fe79-45bf-b7f0-7a52a67dd4fd",
            "name": "schedules",
            "url": "/Schedule/List",
            "iconClass": "",
            "isOpenInNewTab": false,
            "isSeparator": false
          },
          {
            "uid": "b58f2097-2cf5-4d08-a756-28a9ee818c9c",
            "name": "sites",
            "url": "/Site/List",
            "iconClass": "",
            "isOpenInNewTab": false,
            "isSeparator": false
          },
          {
            "uid": "031a1341-5ee9-4f6a-a8e2-2074fc8fd8ad",
            "name": "market_places",
            "url": "/MarketPlace/List",
            "iconClass": "",
            "isOpenInNewTab": false,
            "isSeparator": false
          }
        ]
      },
      {
        "uid": "eed54609-4b9e-4ee9-bc2f-a60c08d15877",
        "name": "organization",
        "iconClass": "",
        "groups": [
        ],
        "items": [
          {
            "uid": "bb6723d6-74e7-42b6-b6a9-c0b8cab10c87",
            "name": "organization_detail",
            "url": "/Organization/Detail",
            "iconClass": "",
            "isOpenInNewTab": false,
            "isSeparator": false
          },
          {
            "uid": "3ab8ac6d-32a6-44f1-a61d-63c9dba895de",
            "name": "journal",
            "url": "/Organization/JournalList",
            "iconClass": "",
            "isOpenInNewTab": false,
            "isSeparator": false
          },
          {
            "uid": "84266305-885e-4b9e-a758-de430604ff00",
            "name": "users",
            "url": "/User/List",
            "iconClass": "",
            "isOpenInNewTab": false,
            "isSeparator": false
          },
          {
            "uid": "a6306a30-9e53-41b1-9185-d4a584b58a31",
            "name": "groups",
            "url": "/Group/List",
            "iconClass": "",
            "isOpenInNewTab": false,
            "isSeparator": false
          },
          {
            "uid": "cb1f3458-c7f6-4c4f-b458-3b5cfe2336ba",
            "name": "integrations",
            "url": "/Integration/List",
            "iconClass": "",
            "isOpenInNewTab": false,
            "isSeparator": false
          },
          {
            "uid": "477009ce-61a9-4453-b865-25f1f0df3015",
            "name": "---",
            "url": "",
            "iconClass": "",
            "isOpenInNewTab": false,
            "isSeparator": true
          },
          {
            "uid": "9b930f56-fbe7-4f37-994b-eff7a9de3004",
            "name": "password_strength_settings",
            "url": "/Organization/IpRestrictions",
            "iconClass": "",
            "isOpenInNewTab": false,
            "isSeparator": false
          },
          {
            "uid": "002741d6-be31-48cf-94be-5b71af57163f",
            "name": "ip_restrictions",
            "url": "/Organization/PasswordStrengthSettings",
            "iconClass": "",
            "isOpenInNewTab": false,
            "isSeparator": false
          },
          {
            "uid": "33ba455b-641b-4f9d-8ed6-e7d385330ea5",
            "name": "custom_objects",
            "url": "/CustomObject/List",
            "iconClass": "",
            "isOpenInNewTab": false,
            "isSeparator": false
          },
          {
            "uid": "ca015a0f-80aa-4092-a482-cf10ecd2ecd7",
            "name": "validation_rules",
            "url": "/ValidationRule/List",
            "iconClass": "",
            "isOpenInNewTab": false,
            "isSeparator": false
          },
          {
            "uid": "d009f827-fd50-4c67-bf62-da1401092186",
            "name": "data_filters",
            "url": "/DataFilter/List",
            "iconClass": "",
            "isOpenInNewTab": false,
            "isSeparator": false
          },
          {
            "uid": "0071ea9c-d522-4aab-bd0d-e7c79b355bfa",
            "name": "views",
            "url": "/View/List",
            "iconClass": "",
            "isOpenInNewTab": false,
            "isSeparator": false
          },
          {
            "uid": "fead77f1-36e0-4173-8799-25545e94954e",
            "name": "---",
            "url": "",
            "iconClass": "",
            "isOpenInNewTab": false,
            "isSeparator": true
          },
          {
            "uid": "3cef0f4d-de24-4829-84a2-b82006d64c4a",
            "name": "menus",
            "url": "/Menu/List",
            "iconClass": "",
            "isOpenInNewTab": false,
            "isSeparator": false
          },
          {
            "uid": "9ee04e21-8afd-4d74-81dc-91ace90592d5",
            "name": "parameters",
            "url": "/Parameter/List",
            "iconClass": "",
            "isOpenInNewTab": false,
            "isSeparator": false
          },
          {
            "uid": "0d139f09-a7fe-4720-9135-a4790780cceb",
            "name": "templates",
            "url": "/Template/List",
            "iconClass": "",
            "isOpenInNewTab": false,
            "isSeparator": false
          },
          {
            "uid": "e5fef54d-d399-443c-b21f-77ce101d429e",
            "name": "---",
            "url": "",
            "iconClass": "",
            "isOpenInNewTab": false,
            "isSeparator": true
          },
          {
            "uid": "09623082-9257-40bf-9512-bf77a4a9c614",
            "name": "folders",
            "url": "/Folder/List",
            "iconClass": "",
            "isOpenInNewTab": false,
            "isSeparator": false
          },
          {
            "uid": "ba495d1d-75d0-42af-b8f4-b6610d5a5dd2",
            "name": "contents",
            "url": "/Content/List",
            "iconClass": "",
            "isOpenInNewTab": false,
            "isSeparator": false
          },
          {
            "uid": "48afae67-fb42-4e66-bb10-4ef1c43d2d8c",
            "name": "jobs",
            "url": "/Job/List",
            "iconClass": "",
            "isOpenInNewTab": false,
            "isSeparator": false
          },
          {
            "uid": "2895adae-fe79-45bf-b7f0-7a52a67dd4fd",
            "name": "schedules",
            "url": "/Schedule/List",
            "iconClass": "",
            "isOpenInNewTab": false,
            "isSeparator": false
          },
          {
            "uid": "b58f2097-2cf5-4d08-a756-28a9ee818c9c",
            "name": "sites",
            "url": "/Site/List",
            "iconClass": "",
            "isOpenInNewTab": false,
            "isSeparator": false
          },
          {
            "uid": "031a1341-5ee9-4f6a-a8e2-2074fc8fd8ad",
            "name": "market_places",
            "url": "/MarketPlace/List",
            "iconClass": "",
            "isOpenInNewTab": false,
            "isSeparator": false
          }
        ]
      },
      {
        "uid": "c86b271e-b7bf-4d66-a4b6-fe9cd6463a61",
        "name": "membership",
        "iconClass": "",
        "groups": [
        ],
        "items": [
          {
            "uid": "bb6723d6-74e7-42b6-b6a9-c0b8cab10c87",
            "name": "organization_detail",
            "url": "/Organization/Detail",
            "iconClass": "",
            "isOpenInNewTab": false,
            "isSeparator": false
          },
          {
            "uid": "3ab8ac6d-32a6-44f1-a61d-63c9dba895de",
            "name": "journal",
            "url": "/Organization/JournalList",
            "iconClass": "",
            "isOpenInNewTab": false,
            "isSeparator": false
          },
          {
            "uid": "84266305-885e-4b9e-a758-de430604ff00",
            "name": "users",
            "url": "/User/List",
            "iconClass": "",
            "isOpenInNewTab": false,
            "isSeparator": false
          },
          {
            "uid": "a6306a30-9e53-41b1-9185-d4a584b58a31",
            "name": "groups",
            "url": "/Group/List",
            "iconClass": "",
            "isOpenInNewTab": false,
            "isSeparator": false
          },
          {
            "uid": "cb1f3458-c7f6-4c4f-b458-3b5cfe2336ba",
            "name": "integrations",
            "url": "/Integration/List",
            "iconClass": "",
            "isOpenInNewTab": false,
            "isSeparator": false
          },
          {
            "uid": "477009ce-61a9-4453-b865-25f1f0df3015",
            "name": "---",
            "url": "",
            "iconClass": "",
            "isOpenInNewTab": false,
            "isSeparator": true
          },
          {
            "uid": "9b930f56-fbe7-4f37-994b-eff7a9de3004",
            "name": "password_strength_settings",
            "url": "/Organization/IpRestrictions",
            "iconClass": "",
            "isOpenInNewTab": false,
            "isSeparator": false
          },
          {
            "uid": "002741d6-be31-48cf-94be-5b71af57163f",
            "name": "ip_restrictions",
            "url": "/Organization/PasswordStrengthSettings",
            "iconClass": "",
            "isOpenInNewTab": false,
            "isSeparator": false
          },
          {
            "uid": "33ba455b-641b-4f9d-8ed6-e7d385330ea5",
            "name": "custom_objects",
            "url": "/CustomObject/List",
            "iconClass": "",
            "isOpenInNewTab": false,
            "isSeparator": false
          },
          {
            "uid": "ca015a0f-80aa-4092-a482-cf10ecd2ecd7",
            "name": "validation_rules",
            "url": "/ValidationRule/List",
            "iconClass": "",
            "isOpenInNewTab": false,
            "isSeparator": false
          },
          {
            "uid": "d009f827-fd50-4c67-bf62-da1401092186",
            "name": "data_filters",
            "url": "/DataFilter/List",
            "iconClass": "",
            "isOpenInNewTab": false,
            "isSeparator": false
          },
          {
            "uid": "0071ea9c-d522-4aab-bd0d-e7c79b355bfa",
            "name": "views",
            "url": "/View/List",
            "iconClass": "",
            "isOpenInNewTab": false,
            "isSeparator": false
          },
          {
            "uid": "fead77f1-36e0-4173-8799-25545e94954e",
            "name": "---",
            "url": "",
            "iconClass": "",
            "isOpenInNewTab": false,
            "isSeparator": true
          },
          {
            "uid": "3cef0f4d-de24-4829-84a2-b82006d64c4a",
            "name": "menus",
            "url": "/Menu/List",
            "iconClass": "",
            "isOpenInNewTab": false,
            "isSeparator": false
          },
          {
            "uid": "9ee04e21-8afd-4d74-81dc-91ace90592d5",
            "name": "parameters",
            "url": "/Parameter/List",
            "iconClass": "",
            "isOpenInNewTab": false,
            "isSeparator": false
          },
          {
            "uid": "0d139f09-a7fe-4720-9135-a4790780cceb",
            "name": "templates",
            "url": "/Template/List",
            "iconClass": "",
            "isOpenInNewTab": false,
            "isSeparator": false
          },
          {
            "uid": "e5fef54d-d399-443c-b21f-77ce101d429e",
            "name": "---",
            "url": "",
            "iconClass": "",
            "isOpenInNewTab": false,
            "isSeparator": true
          },
          {
            "uid": "09623082-9257-40bf-9512-bf77a4a9c614",
            "name": "folders",
            "url": "/Folder/List",
            "iconClass": "",
            "isOpenInNewTab": false,
            "isSeparator": false
          },
          {
            "uid": "ba495d1d-75d0-42af-b8f4-b6610d5a5dd2",
            "name": "contents",
            "url": "/Content/List",
            "iconClass": "",
            "isOpenInNewTab": false,
            "isSeparator": false
          },
          {
            "uid": "48afae67-fb42-4e66-bb10-4ef1c43d2d8c",
            "name": "jobs",
            "url": "/Job/List",
            "iconClass": "",
            "isOpenInNewTab": false,
            "isSeparator": false
          },
          {
            "uid": "2895adae-fe79-45bf-b7f0-7a52a67dd4fd",
            "name": "schedules",
            "url": "/Schedule/List",
            "iconClass": "",
            "isOpenInNewTab": false,
            "isSeparator": false
          },
          {
            "uid": "b58f2097-2cf5-4d08-a756-28a9ee818c9c",
            "name": "sites",
            "url": "/Site/List",
            "iconClass": "",
            "isOpenInNewTab": false,
            "isSeparator": false
          },
          {
            "uid": "031a1341-5ee9-4f6a-a8e2-2074fc8fd8ad",
            "name": "market_places",
            "url": "/MarketPlace/List",
            "iconClass": "",
            "isOpenInNewTab": false,
            "isSeparator": false
          }
        ]
      },
      {
        "uid": "bb0dd7de-f061-4dbb-8ea3-c1d06822b82b",
        "name": "customization",
        "iconClass": "",
        "groups": [
        ],
        "items": [
          {
            "uid": "bb6723d6-74e7-42b6-b6a9-c0b8cab10c87",
            "name": "organization_detail",
            "url": "/Organization/Detail",
            "iconClass": "",
            "isOpenInNewTab": false,
            "isSeparator": false
          },
          {
            "uid": "3ab8ac6d-32a6-44f1-a61d-63c9dba895de",
            "name": "journal",
            "url": "/Organization/JournalList",
            "iconClass": "",
            "isOpenInNewTab": false,
            "isSeparator": false
          },
          {
            "uid": "84266305-885e-4b9e-a758-de430604ff00",
            "name": "users",
            "url": "/User/List",
            "iconClass": "",
            "isOpenInNewTab": false,
            "isSeparator": false
          },
          {
            "uid": "a6306a30-9e53-41b1-9185-d4a584b58a31",
            "name": "groups",
            "url": "/Group/List",
            "iconClass": "",
            "isOpenInNewTab": false,
            "isSeparator": false
          },
          {
            "uid": "cb1f3458-c7f6-4c4f-b458-3b5cfe2336ba",
            "name": "integrations",
            "url": "/Integration/List",
            "iconClass": "",
            "isOpenInNewTab": false,
            "isSeparator": false
          },
          {
            "uid": "477009ce-61a9-4453-b865-25f1f0df3015",
            "name": "---",
            "url": "",
            "iconClass": "",
            "isOpenInNewTab": false,
            "isSeparator": true
          },
          {
            "uid": "9b930f56-fbe7-4f37-994b-eff7a9de3004",
            "name": "password_strength_settings",
            "url": "/Organization/IpRestrictions",
            "iconClass": "",
            "isOpenInNewTab": false,
            "isSeparator": false
          },
          {
            "uid": "002741d6-be31-48cf-94be-5b71af57163f",
            "name": "ip_restrictions",
            "url": "/Organization/PasswordStrengthSettings",
            "iconClass": "",
            "isOpenInNewTab": false,
            "isSeparator": false
          },
          {
            "uid": "33ba455b-641b-4f9d-8ed6-e7d385330ea5",
            "name": "custom_objects",
            "url": "/CustomObject/List",
            "iconClass": "",
            "isOpenInNewTab": false,
            "isSeparator": false
          },
          {
            "uid": "ca015a0f-80aa-4092-a482-cf10ecd2ecd7",
            "name": "validation_rules",
            "url": "/ValidationRule/List",
            "iconClass": "",
            "isOpenInNewTab": false,
            "isSeparator": false
          },
          {
            "uid": "d009f827-fd50-4c67-bf62-da1401092186",
            "name": "data_filters",
            "url": "/DataFilter/List",
            "iconClass": "",
            "isOpenInNewTab": false,
            "isSeparator": false
          },
          {
            "uid": "0071ea9c-d522-4aab-bd0d-e7c79b355bfa",
            "name": "views",
            "url": "/View/List",
            "iconClass": "",
            "isOpenInNewTab": false,
            "isSeparator": false
          },
          {
            "uid": "fead77f1-36e0-4173-8799-25545e94954e",
            "name": "---",
            "url": "",
            "iconClass": "",
            "isOpenInNewTab": false,
            "isSeparator": true
          },
          {
            "uid": "3cef0f4d-de24-4829-84a2-b82006d64c4a",
            "name": "menus",
            "url": "/Menu/List",
            "iconClass": "",
            "isOpenInNewTab": false,
            "isSeparator": false
          },
          {
            "uid": "9ee04e21-8afd-4d74-81dc-91ace90592d5",
            "name": "parameters",
            "url": "/Parameter/List",
            "iconClass": "",
            "isOpenInNewTab": false,
            "isSeparator": false
          },
          {
            "uid": "0d139f09-a7fe-4720-9135-a4790780cceb",
            "name": "templates",
            "url": "/Template/List",
            "iconClass": "",
            "isOpenInNewTab": false,
            "isSeparator": false
          },
          {
            "uid": "e5fef54d-d399-443c-b21f-77ce101d429e",
            "name": "---",
            "url": "",
            "iconClass": "",
            "isOpenInNewTab": false,
            "isSeparator": true
          },
          {
            "uid": "09623082-9257-40bf-9512-bf77a4a9c614",
            "name": "folders",
            "url": "/Folder/List",
            "iconClass": "",
            "isOpenInNewTab": false,
            "isSeparator": false
          },
          {
            "uid": "ba495d1d-75d0-42af-b8f4-b6610d5a5dd2",
            "name": "contents",
            "url": "/Content/List",
            "iconClass": "",
            "isOpenInNewTab": false,
            "isSeparator": false
          },
          {
            "uid": "48afae67-fb42-4e66-bb10-4ef1c43d2d8c",
            "name": "jobs",
            "url": "/Job/List",
            "iconClass": "",
            "isOpenInNewTab": false,
            "isSeparator": false
          },
          {
            "uid": "2895adae-fe79-45bf-b7f0-7a52a67dd4fd",
            "name": "schedules",
            "url": "/Schedule/List",
            "iconClass": "",
            "isOpenInNewTab": false,
            "isSeparator": false
          },
          {
            "uid": "b58f2097-2cf5-4d08-a756-28a9ee818c9c",
            "name": "sites",
            "url": "/Site/List",
            "iconClass": "",
            "isOpenInNewTab": false,
            "isSeparator": false
          },
          {
            "uid": "031a1341-5ee9-4f6a-a8e2-2074fc8fd8ad",
            "name": "market_places",
            "url": "/MarketPlace/List",
            "iconClass": "",
            "isOpenInNewTab": false,
            "isSeparator": false
          }
        ]
      },
      {
        "uid": "dac66655-ac36-4dbf-9b4e-17f9b3683ec2",
        "name": "content_management",
        "iconClass": "",
        "groups": [
        ],
        "items": [
          {
            "uid": "bb6723d6-74e7-42b6-b6a9-c0b8cab10c87",
            "name": "organization_detail",
            "url": "/Organization/Detail",
            "iconClass": "",
            "isOpenInNewTab": false,
            "isSeparator": false
          },
          {
            "uid": "3ab8ac6d-32a6-44f1-a61d-63c9dba895de",
            "name": "journal",
            "url": "/Organization/JournalList",
            "iconClass": "",
            "isOpenInNewTab": false,
            "isSeparator": false
          },
          {
            "uid": "84266305-885e-4b9e-a758-de430604ff00",
            "name": "users",
            "url": "/User/List",
            "iconClass": "",
            "isOpenInNewTab": false,
            "isSeparator": false
          },
          {
            "uid": "a6306a30-9e53-41b1-9185-d4a584b58a31",
            "name": "groups",
            "url": "/Group/List",
            "iconClass": "",
            "isOpenInNewTab": false,
            "isSeparator": false
          },
          {
            "uid": "cb1f3458-c7f6-4c4f-b458-3b5cfe2336ba",
            "name": "integrations",
            "url": "/Integration/List",
            "iconClass": "",
            "isOpenInNewTab": false,
            "isSeparator": false
          },
          {
            "uid": "477009ce-61a9-4453-b865-25f1f0df3015",
            "name": "---",
            "url": "",
            "iconClass": "",
            "isOpenInNewTab": false,
            "isSeparator": true
          },
          {
            "uid": "9b930f56-fbe7-4f37-994b-eff7a9de3004",
            "name": "password_strength_settings",
            "url": "/Organization/IpRestrictions",
            "iconClass": "",
            "isOpenInNewTab": false,
            "isSeparator": false
          },
          {
            "uid": "002741d6-be31-48cf-94be-5b71af57163f",
            "name": "ip_restrictions",
            "url": "/Organization/PasswordStrengthSettings",
            "iconClass": "",
            "isOpenInNewTab": false,
            "isSeparator": false
          },
          {
            "uid": "33ba455b-641b-4f9d-8ed6-e7d385330ea5",
            "name": "custom_objects",
            "url": "/CustomObject/List",
            "iconClass": "",
            "isOpenInNewTab": false,
            "isSeparator": false
          },
          {
            "uid": "ca015a0f-80aa-4092-a482-cf10ecd2ecd7",
            "name": "validation_rules",
            "url": "/ValidationRule/List",
            "iconClass": "",
            "isOpenInNewTab": false,
            "isSeparator": false
          },
          {
            "uid": "d009f827-fd50-4c67-bf62-da1401092186",
            "name": "data_filters",
            "url": "/DataFilter/List",
            "iconClass": "",
            "isOpenInNewTab": false,
            "isSeparator": false
          },
          {
            "uid": "0071ea9c-d522-4aab-bd0d-e7c79b355bfa",
            "name": "views",
            "url": "/View/List",
            "iconClass": "",
            "isOpenInNewTab": false,
            "isSeparator": false
          },
          {
            "uid": "fead77f1-36e0-4173-8799-25545e94954e",
            "name": "---",
            "url": "",
            "iconClass": "",
            "isOpenInNewTab": false,
            "isSeparator": true
          },
          {
            "uid": "3cef0f4d-de24-4829-84a2-b82006d64c4a",
            "name": "menus",
            "url": "/Menu/List",
            "iconClass": "",
            "isOpenInNewTab": false,
            "isSeparator": false
          },
          {
            "uid": "9ee04e21-8afd-4d74-81dc-91ace90592d5",
            "name": "parameters",
            "url": "/Parameter/List",
            "iconClass": "",
            "isOpenInNewTab": false,
            "isSeparator": false
          },
          {
            "uid": "0d139f09-a7fe-4720-9135-a4790780cceb",
            "name": "templates",
            "url": "/Template/List",
            "iconClass": "",
            "isOpenInNewTab": false,
            "isSeparator": false
          },
          {
            "uid": "e5fef54d-d399-443c-b21f-77ce101d429e",
            "name": "---",
            "url": "",
            "iconClass": "",
            "isOpenInNewTab": false,
            "isSeparator": true
          },
          {
            "uid": "09623082-9257-40bf-9512-bf77a4a9c614",
            "name": "folders",
            "url": "/Folder/List",
            "iconClass": "",
            "isOpenInNewTab": false,
            "isSeparator": false
          },
          {
            "uid": "ba495d1d-75d0-42af-b8f4-b6610d5a5dd2",
            "name": "contents",
            "url": "/Content/List",
            "iconClass": "",
            "isOpenInNewTab": false,
            "isSeparator": false
          },
          {
            "uid": "48afae67-fb42-4e66-bb10-4ef1c43d2d8c",
            "name": "jobs",
            "url": "/Job/List",
            "iconClass": "",
            "isOpenInNewTab": false,
            "isSeparator": false
          },
          {
            "uid": "2895adae-fe79-45bf-b7f0-7a52a67dd4fd",
            "name": "schedules",
            "url": "/Schedule/List",
            "iconClass": "",
            "isOpenInNewTab": false,
            "isSeparator": false
          },
          {
            "uid": "b58f2097-2cf5-4d08-a756-28a9ee818c9c",
            "name": "sites",
            "url": "/Site/List",
            "iconClass": "",
            "isOpenInNewTab": false,
            "isSeparator": false
          },
          {
            "uid": "031a1341-5ee9-4f6a-a8e2-2074fc8fd8ad",
            "name": "market_places",
            "url": "/MarketPlace/List",
            "iconClass": "",
            "isOpenInNewTab": false,
            "isSeparator": false
          }
        ]
      },
      {
        "uid": "b03a5689-0e08-4dc3-8cc3-1a921577c870",
        "name": "jobs",
        "iconClass": "",
        "groups": [
        ],
        "items": [
          {
            "uid": "bb6723d6-74e7-42b6-b6a9-c0b8cab10c87",
            "name": "organization_detail",
            "url": "/Organization/Detail",
            "iconClass": "",
            "isOpenInNewTab": false,
            "isSeparator": false
          },
          {
            "uid": "3ab8ac6d-32a6-44f1-a61d-63c9dba895de",
            "name": "journal",
            "url": "/Organization/JournalList",
            "iconClass": "",
            "isOpenInNewTab": false,
            "isSeparator": false
          },
          {
            "uid": "84266305-885e-4b9e-a758-de430604ff00",
            "name": "users",
            "url": "/User/List",
            "iconClass": "",
            "isOpenInNewTab": false,
            "isSeparator": false
          },
          {
            "uid": "a6306a30-9e53-41b1-9185-d4a584b58a31",
            "name": "groups",
            "url": "/Group/List",
            "iconClass": "",
            "isOpenInNewTab": false,
            "isSeparator": false
          },
          {
            "uid": "cb1f3458-c7f6-4c4f-b458-3b5cfe2336ba",
            "name": "integrations",
            "url": "/Integration/List",
            "iconClass": "",
            "isOpenInNewTab": false,
            "isSeparator": false
          },
          {
            "uid": "477009ce-61a9-4453-b865-25f1f0df3015",
            "name": "---",
            "url": "",
            "iconClass": "",
            "isOpenInNewTab": false,
            "isSeparator": true
          },
          {
            "uid": "9b930f56-fbe7-4f37-994b-eff7a9de3004",
            "name": "password_strength_settings",
            "url": "/Organization/IpRestrictions",
            "iconClass": "",
            "isOpenInNewTab": false,
            "isSeparator": false
          },
          {
            "uid": "002741d6-be31-48cf-94be-5b71af57163f",
            "name": "ip_restrictions",
            "url": "/Organization/PasswordStrengthSettings",
            "iconClass": "",
            "isOpenInNewTab": false,
            "isSeparator": false
          },
          {
            "uid": "33ba455b-641b-4f9d-8ed6-e7d385330ea5",
            "name": "custom_objects",
            "url": "/CustomObject/List",
            "iconClass": "",
            "isOpenInNewTab": false,
            "isSeparator": false
          },
          {
            "uid": "ca015a0f-80aa-4092-a482-cf10ecd2ecd7",
            "name": "validation_rules",
            "url": "/ValidationRule/List",
            "iconClass": "",
            "isOpenInNewTab": false,
            "isSeparator": false
          },
          {
            "uid": "d009f827-fd50-4c67-bf62-da1401092186",
            "name": "data_filters",
            "url": "/DataFilter/List",
            "iconClass": "",
            "isOpenInNewTab": false,
            "isSeparator": false
          },
          {
            "uid": "0071ea9c-d522-4aab-bd0d-e7c79b355bfa",
            "name": "views",
            "url": "/View/List",
            "iconClass": "",
            "isOpenInNewTab": false,
            "isSeparator": false
          },
          {
            "uid": "fead77f1-36e0-4173-8799-25545e94954e",
            "name": "---",
            "url": "",
            "iconClass": "",
            "isOpenInNewTab": false,
            "isSeparator": true
          },
          {
            "uid": "3cef0f4d-de24-4829-84a2-b82006d64c4a",
            "name": "menus",
            "url": "/Menu/List",
            "iconClass": "",
            "isOpenInNewTab": false,
            "isSeparator": false
          },
          {
            "uid": "9ee04e21-8afd-4d74-81dc-91ace90592d5",
            "name": "parameters",
            "url": "/Parameter/List",
            "iconClass": "",
            "isOpenInNewTab": false,
            "isSeparator": false
          },
          {
            "uid": "0d139f09-a7fe-4720-9135-a4790780cceb",
            "name": "templates",
            "url": "/Template/List",
            "iconClass": "",
            "isOpenInNewTab": false,
            "isSeparator": false
          },
          {
            "uid": "e5fef54d-d399-443c-b21f-77ce101d429e",
            "name": "---",
            "url": "",
            "iconClass": "",
            "isOpenInNewTab": false,
            "isSeparator": true
          },
          {
            "uid": "09623082-9257-40bf-9512-bf77a4a9c614",
            "name": "folders",
            "url": "/Folder/List",
            "iconClass": "",
            "isOpenInNewTab": false,
            "isSeparator": false
          },
          {
            "uid": "ba495d1d-75d0-42af-b8f4-b6610d5a5dd2",
            "name": "contents",
            "url": "/Content/List",
            "iconClass": "",
            "isOpenInNewTab": false,
            "isSeparator": false
          },
          {
            "uid": "48afae67-fb42-4e66-bb10-4ef1c43d2d8c",
            "name": "jobs",
            "url": "/Job/List",
            "iconClass": "",
            "isOpenInNewTab": false,
            "isSeparator": false
          },
          {
            "uid": "2895adae-fe79-45bf-b7f0-7a52a67dd4fd",
            "name": "schedules",
            "url": "/Schedule/List",
            "iconClass": "",
            "isOpenInNewTab": false,
            "isSeparator": false
          },
          {
            "uid": "b58f2097-2cf5-4d08-a756-28a9ee818c9c",
            "name": "sites",
            "url": "/Site/List",
            "iconClass": "",
            "isOpenInNewTab": false,
            "isSeparator": false
          },
          {
            "uid": "031a1341-5ee9-4f6a-a8e2-2074fc8fd8ad",
            "name": "market_places",
            "url": "/MarketPlace/List",
            "iconClass": "",
            "isOpenInNewTab": false,
            "isSeparator": false
          }
        ]
      },
      {
        "uid": "8a4cfb86-a248-4c7e-a9db-4957984d02d8",
        "name": "sites_and_market_places",
        "iconClass": "",
        "groups": [
        ],
        "items": [
          {
            "uid": "bb6723d6-74e7-42b6-b6a9-c0b8cab10c87",
            "name": "organization_detail",
            "url": "/Organization/Detail",
            "iconClass": "",
            "isOpenInNewTab": false,
            "isSeparator": false
          },
          {
            "uid": "3ab8ac6d-32a6-44f1-a61d-63c9dba895de",
            "name": "journal",
            "url": "/Organization/JournalList",
            "iconClass": "",
            "isOpenInNewTab": false,
            "isSeparator": false
          },
          {
            "uid": "84266305-885e-4b9e-a758-de430604ff00",
            "name": "users",
            "url": "/User/List",
            "iconClass": "",
            "isOpenInNewTab": false,
            "isSeparator": false
          },
          {
            "uid": "a6306a30-9e53-41b1-9185-d4a584b58a31",
            "name": "groups",
            "url": "/Group/List",
            "iconClass": "",
            "isOpenInNewTab": false,
            "isSeparator": false
          },
          {
            "uid": "cb1f3458-c7f6-4c4f-b458-3b5cfe2336ba",
            "name": "integrations",
            "url": "/Integration/List",
            "iconClass": "",
            "isOpenInNewTab": false,
            "isSeparator": false
          },
          {
            "uid": "477009ce-61a9-4453-b865-25f1f0df3015",
            "name": "---",
            "url": "",
            "iconClass": "",
            "isOpenInNewTab": false,
            "isSeparator": true
          },
          {
            "uid": "9b930f56-fbe7-4f37-994b-eff7a9de3004",
            "name": "password_strength_settings",
            "url": "/Organization/IpRestrictions",
            "iconClass": "",
            "isOpenInNewTab": false,
            "isSeparator": false
          },
          {
            "uid": "002741d6-be31-48cf-94be-5b71af57163f",
            "name": "ip_restrictions",
            "url": "/Organization/PasswordStrengthSettings",
            "iconClass": "",
            "isOpenInNewTab": false,
            "isSeparator": false
          },
          {
            "uid": "33ba455b-641b-4f9d-8ed6-e7d385330ea5",
            "name": "custom_objects",
            "url": "/CustomObject/List",
            "iconClass": "",
            "isOpenInNewTab": false,
            "isSeparator": false
          },
          {
            "uid": "ca015a0f-80aa-4092-a482-cf10ecd2ecd7",
            "name": "validation_rules",
            "url": "/ValidationRule/List",
            "iconClass": "",
            "isOpenInNewTab": false,
            "isSeparator": false
          },
          {
            "uid": "d009f827-fd50-4c67-bf62-da1401092186",
            "name": "data_filters",
            "url": "/DataFilter/List",
            "iconClass": "",
            "isOpenInNewTab": false,
            "isSeparator": false
          },
          {
            "uid": "0071ea9c-d522-4aab-bd0d-e7c79b355bfa",
            "name": "views",
            "url": "/View/List",
            "iconClass": "",
            "isOpenInNewTab": false,
            "isSeparator": false
          },
          {
            "uid": "fead77f1-36e0-4173-8799-25545e94954e",
            "name": "---",
            "url": "",
            "iconClass": "",
            "isOpenInNewTab": false,
            "isSeparator": true
          },
          {
            "uid": "3cef0f4d-de24-4829-84a2-b82006d64c4a",
            "name": "menus",
            "url": "/Menu/List",
            "iconClass": "",
            "isOpenInNewTab": false,
            "isSeparator": false
          },
          {
            "uid": "9ee04e21-8afd-4d74-81dc-91ace90592d5",
            "name": "parameters",
            "url": "/Parameter/List",
            "iconClass": "",
            "isOpenInNewTab": false,
            "isSeparator": false
          },
          {
            "uid": "0d139f09-a7fe-4720-9135-a4790780cceb",
            "name": "templates",
            "url": "/Template/List",
            "iconClass": "",
            "isOpenInNewTab": false,
            "isSeparator": false
          },
          {
            "uid": "e5fef54d-d399-443c-b21f-77ce101d429e",
            "name": "---",
            "url": "",
            "iconClass": "",
            "isOpenInNewTab": false,
            "isSeparator": true
          },
          {
            "uid": "09623082-9257-40bf-9512-bf77a4a9c614",
            "name": "folders",
            "url": "/Folder/List",
            "iconClass": "",
            "isOpenInNewTab": false,
            "isSeparator": false
          },
          {
            "uid": "ba495d1d-75d0-42af-b8f4-b6610d5a5dd2",
            "name": "contents",
            "url": "/Content/List",
            "iconClass": "",
            "isOpenInNewTab": false,
            "isSeparator": false
          },
          {
            "uid": "48afae67-fb42-4e66-bb10-4ef1c43d2d8c",
            "name": "jobs",
            "url": "/Job/List",
            "iconClass": "",
            "isOpenInNewTab": false,
            "isSeparator": false
          },
          {
            "uid": "2895adae-fe79-45bf-b7f0-7a52a67dd4fd",
            "name": "schedules",
            "url": "/Schedule/List",
            "iconClass": "",
            "isOpenInNewTab": false,
            "isSeparator": false
          },
          {
            "uid": "b58f2097-2cf5-4d08-a756-28a9ee818c9c",
            "name": "sites",
            "url": "/Site/List",
            "iconClass": "",
            "isOpenInNewTab": false,
            "isSeparator": false
          },
          {
            "uid": "031a1341-5ee9-4f6a-a8e2-2074fc8fd8ad",
            "name": "market_places",
            "url": "/MarketPlace/List",
            "iconClass": "",
            "isOpenInNewTab": false,
            "isSeparator": false
          }
        ]
      }
    ],
    "items": [
    ]
  }
}